<svg width="100%" height="auto" viewBox="0 0 1003 465" fill="none" xmlns="http://www.w3.org/2000/svg">
<path d="M0 87.0525C256 87.0524 507.5 6.69627 1003 14.8807V234H0V87.0525Z" fill="#C4C4C4"/>
<path d="M1003 377.948C747 377.948 495.5 458.304 0 450.119V231H1003V377.948Z" fill="#C4C4C4"/>
</svg>
